Group_Project_EF
…
Auto Arima w/ XREF

#A. all
#Uses naive forecast to predict flights into future
flights[,1]

## # A tibble: 228 x 1
##    flights
##      <dbl>
##  1   30195
##  2   31345
##  3   31121
##  4   29638
##  5   30990
##  6   31206
##  7   32696
##  8   32715
##  9   30970
## 10   33217
## # ... with 218 more rows
…
